{
    "index": {
        "download_fdroid": "Descarcă F-Droid", 
        "gpg_signature": "Semnătură PGP", 
        "introduction": "F-Droid este un catalog instalabil de aplicații FOSS (software liber și cu sursă deschisă) pentru platforma Android. Clientul ușurează căutarea, instalarea și ținerea evidenței actualizărilor pe dispozitivul dumneavoastră.", 
        "screenshot": "Captura de ecran aplicația F-Droid", 
        "title": "Ce este F-Droid?"
    }, 
    "navigation": {
        "about": "Despre", 
        "browse": "Răsfoiți", 
        "contribute": "Contribuție", 
        "documentation": "Documentație", 
        "forum": "Forum", 
        "issues": "Listă probleme", 
        "news": "Știri", 
        "repomaker": "Repomaker", 
        "tutorials": "Tutoriale"
    }, 
    "package": {
        "author": "Autor", 
        "build_metadata": "Creează metadata", 
        "changelog": "Listă schimbări", 
        "donate": "Donează", 
        "download": "Descarcă [file_extension]", 
        "flattr": "Flattr", 
        "gpg_signature": "Semnătură PGP", 
        "issue_tracker": "Listă probleme", 
        "liberapay": "Liberapay", 
        "license": "Licență", 
        "minimum_android_version": "Această versiune necesită Android [android_version] sau mai nou.", 
        "new_in_version": "Noutăți în versiunea [latest_version]", 
        "packages": "Pachete", 
        "permissions": "Permisiuni", 
        "signed_by_developer": "Este compilat și semnat de către programatorii inițiali.", 
        "signed_by_fdroid": "Este compilat și semnat de către F-Droid, și este garantat să corespundă cu <a href=\"[source_code_url]\">această arhivă ce conține codul sursă</a>.", 
        "source_code": "Cod sursă", 
        "suggest_downloading_via_fdroid": "Cu toate că fișierele APK sunt disponibile mai jos, pentru a vă ajuta, trebuie să știți că instalând în acest fel nu veți primi notificări de actualizare și este un mod mai puțin sigur de a descărca. Vă recomandăm să instalați și să utilizați clientul F-Droid.", 
        "technical_info": "Informații tehnice", 
        "version_info": "<b>Versiunea [package_version]</b> ([package_version_code]) - Adăugată pe [package_added_date]", 
        "website": "SIte"
    }, 
    "sidebars": {
        "donate": {
            "bank_transfer_name": "Nume", 
            "bitcoin_alt": "Donează cu Bitcoin", 
            "flattr_alt": "Donează prin Flattr", 
            "heading": "Donează", 
            "liberapay_alt": "Donează prin Liberapay", 
            "litecoin_alt": "Donează Litecoin", 
            "paypal_alt": "Donează prin PayPal", 
            "powered_by_donations": "F-Droid este alimentat de donațiile dumneavoastră!", 
            "via_bank_transfer": "Transfer bancar"
        }, 
        "last_updated": {
            "heading": "Ultimele actualizări"
        }, 
        "latest_packages": {
            "heading": "Cele mai noi aplicații"
        }, 
        "news": {
            "heading": "Știri"
        }, 
        "search": {
            "heading": "Caută aplicații", 
            "noscript": "Necesită activare JavaScript"
        }
    }
}